{
  "title": "al_metrics-*",
  "timeFieldName": "timestamp",
  "fields": "[{\"name\":\"ingest.whitelisted\",\"type\":\"number\",\"count\":0,\"scripted\":false,\"indexed\":true,\"analyzed\":false,\"doc_values\":true},{\"name\":\"_index\",\"type\":\"string\",\"count\":0,\"scripted\":false,\"indexed\":false,\"analyzed\":false,\"doc_values\":false},{\"name\":\"ingest.files_completed\",\"type\":\"number\",\"count\":0,\"scripted\":false,\"indexed\":true,\"analyzed\":false,\"doc_values\":true},{\"name\":\"ingest.skipped\",\"type\":\"number\",\"count\":0,\"scripted\":false,\"indexed\":true,\"analyzed\":false,\"doc_values\":true},{\"name\":\"type\",\"type\":\"string\",\"count\":0,\"scripted\":false,\"indexed\":true,\"analyzed\":true,\"doc_values\":false},{\"name\":\"ingest.error\",\"type\":\"number\",\"count\":0,\"scripted\":false,\"indexed\":true,\"analyzed\":false,\"doc_values\":true},{\"name\":\"ingest.bytes_ingested\",\"type\":\"number\",\"count\":0,\"scripted\":false,\"indexed\":true,\"analyzed\":false,\"doc_values\":true},{\"name\":\"host\",\"type\":\"string\",\"count\":0,\"scripted\":false,\"indexed\":true,\"analyzed\":true,\"doc_values\":false},{\"name\":\"timestamp\",\"type\":\"date\",\"count\":0,\"scripted\":false,\"indexed\":true,\"analyzed\":false,\"doc_values\":true},{\"name\":\"ingest.submissions_ingested\",\"type\":\"number\",\"count\":0,\"scripted\":false,\"indexed\":true,\"analyzed\":false,\"doc_values\":true},{\"name\":\"ingest.timed_out\",\"type\":\"number\",\"count\":0,\"scripted\":false,\"indexed\":true,\"analyzed\":false,\"doc_values\":true},{\"name\":\"ingest.bytes_completed\",\"type\":\"number\",\"count\":0,\"scripted\":false,\"indexed\":true,\"analyzed\":false,\"doc_values\":true},{\"name\":\"ingest.submissions_completed\",\"type\":\"number\",\"count\":0,\"scripted\":false,\"indexed\":true,\"analyzed\":false,\"doc_values\":true},{\"name\":\"ingest.duplicates\",\"type\":\"number\",\"count\":0,\"scripted\":false,\"indexed\":true,\"analyzed\":false,\"doc_values\":true},{\"name\":\"name\",\"type\":\"string\",\"count\":0,\"scripted\":false,\"indexed\":true,\"analyzed\":true,\"doc_values\":false},{\"name\":\"_source\",\"type\":\"_source\",\"count\":0,\"scripted\":false,\"indexed\":false,\"analyzed\":false,\"doc_values\":false},{\"name\":\"alert.heavy_ignored\",\"type\":\"number\",\"count\":0,\"scripted\":false,\"indexed\":true,\"analyzed\":false,\"doc_values\":true},{\"name\":\"alert.saved\",\"type\":\"number\",\"count\":0,\"scripted\":false,\"indexed\":true,\"analyzed\":false,\"doc_values\":true},{\"name\":\"alert.proto_smtp\",\"type\":\"number\",\"count\":0,\"scripted\":false,\"indexed\":true,\"analyzed\":false,\"doc_values\":true},{\"name\":\"alert.received\",\"type\":\"number\",\"count\":0,\"scripted\":false,\"indexed\":true,\"analyzed\":false,\"doc_values\":true},{\"name\":\"alert.err_no_submission\",\"type\":\"number\",\"count\":0,\"scripted\":false,\"indexed\":true,\"analyzed\":false,\"doc_values\":true},{\"name\":\"alert.proto_other\",\"type\":\"number\",\"count\":0,\"scripted\":false,\"indexed\":true,\"analyzed\":false,\"doc_values\":true},{\"name\":\"alert.proto_http\",\"type\":\"number\",\"count\":0,\"scripted\":false,\"indexed\":true,\"analyzed\":false,\"doc_values\":true},{\"name\":\"svc.job_not_scored\",\"type\":\"number\",\"count\":0,\"scripted\":false,\"indexed\":true,\"analyzed\":false,\"doc_values\":true},{\"name\":\"svc.job_scored\",\"type\":\"number\",\"count\":0,\"scripted\":false,\"indexed\":true,\"analyzed\":false,\"doc_values\":true},{\"name\":\"svc.execute_fail_recov\",\"type\":\"number\",\"count\":0,\"scripted\":false,\"indexed\":true,\"analyzed\":false,\"doc_values\":true},{\"name\":\"svc.execute_start\",\"type\":\"number\",\"count\":0,\"scripted\":false,\"indexed\":true,\"analyzed\":false,\"doc_values\":true},{\"name\":\"svc.cache_miss\",\"type\":\"number\",\"count\":0,\"scripted\":false,\"indexed\":true,\"analyzed\":false,\"doc_values\":true},{\"name\":\"svc.execute_done\",\"type\":\"number\",\"count\":0,\"scripted\":false,\"indexed\":true,\"analyzed\":false,\"doc_values\":true},{\"name\":\"svc.cache_hit\",\"type\":\"number\",\"count\":0,\"scripted\":false,\"indexed\":true,\"analyzed\":false,\"doc_values\":true},{\"name\":\"svc.cache_skipped\",\"type\":\"number\",\"count\":0,\"scripted\":false,\"indexed\":true,\"analyzed\":false,\"doc_values\":true},{\"name\":\"svc.execute_fail_nonrecov\",\"type\":\"number\",\"count\":0,\"scripted\":false,\"indexed\":true,\"analyzed\":false,\"doc_values\":true},{\"name\":\"dispatch.files_completed\",\"type\":\"number\",\"count\":0,\"scripted\":false,\"indexed\":true,\"analyzed\":false,\"doc_values\":true},{\"name\":\"_id\",\"type\":\"string\",\"count\":0,\"scripted\":false,\"indexed\":false,\"analyzed\":false,\"doc_values\":false},{\"name\":\"_type\",\"type\":\"string\",\"count\":0,\"scripted\":false,\"indexed\":false,\"analyzed\":false,\"doc_values\":false},{\"name\":\"_score\",\"type\":\"number\",\"count\":0,\"scripted\":false,\"indexed\":false,\"analyzed\":false,\"doc_values\":false},{\"name\":\"expiry.alert\",\"type\":\"number\",\"count\":0,\"scripted\":false,\"indexed\":true,\"analyzed\":false,\"doc_values\":true},{\"name\":\"expiry.emptyresult\",\"type\":\"number\",\"count\":0,\"scripted\":false,\"indexed\":true,\"analyzed\":false,\"doc_values\":true},{\"name\":\"expiry.error\",\"type\":\"number\",\"count\":0,\"scripted\":false,\"indexed\":true,\"analyzed\":false,\"doc_values\":true},{\"name\":\"expiry.file\",\"type\":\"number\",\"count\":0,\"scripted\":false,\"indexed\":true,\"analyzed\":false,\"doc_values\":true},{\"name\":\"expiry.filescore\",\"type\":\"number\",\"count\":0,\"scripted\":false,\"indexed\":true,\"analyzed\":false,\"doc_values\":true},{\"name\":\"expiry.result\",\"type\":\"number\",\"count\":0,\"scripted\":false,\"indexed\":true,\"analyzed\":false,\"doc_values\":true},{\"name\":\"expiry.submission\",\"type\":\"number\",\"count\":0,\"scripted\":false,\"indexed\":true,\"analyzed\":false,\"doc_values\":true}]",
  "fieldFormatMap": "{\"ingest.bytes_ingested\":{\"id\":\"bytes\"},\"ingest.bytes_completed\":{\"id\":\"bytes\"},\"ingest.whitelisted\":{\"id\":\"number\",\"params\":{\"pattern\":\"0,0\"}},\"ingest.files_completed\":{\"id\":\"number\",\"params\":{\"pattern\":\"0,0\"}},\"ingest.skipped\":{\"id\":\"number\",\"params\":{\"pattern\":\"0,0\"}},\"ingest.error\":{\"id\":\"number\",\"params\":{\"pattern\":\"0,0\"}},\"ingest.submissions_ingested\":{\"id\":\"number\",\"params\":{\"pattern\":\"0,0\"}},\"ingest.timed_out\":{\"id\":\"number\",\"params\":{\"pattern\":\"0,0\"}},\"ingest.submissions_completed\":{\"id\":\"number\",\"params\":{\"pattern\":\"0,0\"}},\"ingest.duplicates\":{\"id\":\"number\",\"params\":{\"pattern\":\"0,0\"}},\"alert.heavy_ignored\":{\"id\":\"number\",\"params\":{\"pattern\":\"0,0\"}},\"alert.saved\":{\"id\":\"number\",\"params\":{\"pattern\":\"0,0\"}},\"alert.proto_smtp\":{\"id\":\"number\",\"params\":{\"pattern\":\"0,0\"}},\"alert.received\":{\"id\":\"number\",\"params\":{\"pattern\":\"0,0\"}},\"alert.err_no_submission\":{\"id\":\"number\",\"params\":{\"pattern\":\"0,0\"}},\"alert.proto_other\":{\"id\":\"number\",\"params\":{\"pattern\":\"0,0\"}},\"alert.proto_http\":{\"id\":\"number\",\"params\":{\"pattern\":\"0,0\"}},\"dispatch.files_completed\":{\"id\":\"number\",\"params\":{\"pattern\":\"0,0\"}},\"svc.job_not_scored\":{\"id\":\"number\",\"params\":{\"pattern\":\"0,0\"}},\"svc.job_scored\":{\"id\":\"number\",\"params\":{\"pattern\":\"0,0\"}},\"svc.execute_fail_recov\":{\"id\":\"number\",\"params\":{\"pattern\":\"0,0\"}},\"svc.execute_start\":{\"id\":\"number\",\"params\":{\"pattern\":\"0,0\"}},\"svc.cache_miss\":{\"id\":\"number\",\"params\":{\"pattern\":\"0,0\"}},\"svc.execute_done\":{\"id\":\"number\",\"params\":{\"pattern\":\"0,0\"}},\"svc.cache_hit\":{\"id\":\"number\",\"params\":{\"pattern\":\"0,0\"}},\"svc.cache_skipped\":{\"id\":\"number\",\"params\":{\"pattern\":\"0,0\"}},\"svc.execute_fail_nonrecov\":{\"id\":\"number\",\"params\":{\"pattern\":\"0,0\"}},\"expiry.alert\":{\"id\":\"number\",\"params\":{\"pattern\":\"0,0\"}},\"expiry.emptyresult\":{\"id\":\"number\",\"params\":{\"pattern\":\"0,0\"}},\"expiry.error\":{\"id\":\"number\",\"params\":{\"pattern\":\"0,0\"}},\"expiry.file\":{\"id\":\"number\",\"params\":{\"pattern\":\"0,0\"}},\"expiry.filescore\":{\"id\":\"number\",\"params\":{\"pattern\":\"0,0\"}},\"expiry.result\":{\"id\":\"number\",\"params\":{\"pattern\":\"0,0\"}},\"expiry.submission\":{\"id\":\"number\",\"params\":{\"pattern\":\"0,0\"}}}"
}
